20.03.2015 16:41:56 [main] INFO  by.epam.port.model.businesslogic.PortManager  - Create 'PortManager' object.
20.03.2015 16:41:56 [Thread-0] INFO  by.epam.port.model.businesslogic.PortManager  - Причал №1 зарезервирован.
20.03.2015 16:41:56 [Thread-3] INFO  by.epam.port.model.businesslogic.PortManager  - Причал №2 зарезервирован.
20.03.2015 16:41:56 [Thread-1] INFO  by.epam.port.model.businesslogic.PortManager  - Причал №3 зарезервирован.
20.03.2015 16:41:56 [Thread-6] INFO  by.epam.port.model.businesslogic.PortManager  - Причал №4 зарезервирован.
20.03.2015 16:41:56 [Thread-7] INFO  by.epam.port.model.businesslogic.PortManager  - Причал №5 зарезервирован.
20.03.2015 16:41:56 [Thread-8] INFO  by.epam.port.model.businesslogic.PortManager  - Причал №6 зарезервирован.
20.03.2015 16:41:56 [Thread-9] INFO  by.epam.port.model.businesslogic.PortManager  - Причал №7 зарезервирован.
20.03.2015 16:41:56 [Thread-10] INFO  by.epam.port.model.businesslogic.PortManager  - Причал №8 зарезервирован.
20.03.2015 16:41:56 [Thread-11] INFO  by.epam.port.model.businesslogic.PortManager  - Причал №9 зарезервирован.
20.03.2015 16:41:56 [Thread-12] INFO  by.epam.port.model.businesslogic.PortManager  - Причал №10 зарезервирован.
20.03.2015 16:41:57 [Thread-3] INFO  by.epam.port.model.businesslogic.ShipThread  - Корабль Viena разгрузил контейнер №100
20.03.2015 16:41:57 [Thread-8] INFO  by.epam.port.model.businesslogic.ShipThread  - Корабль Kiev1 разгрузил контейнер №100
20.03.2015 16:41:57 [Thread-8] INFO  by.epam.port.model.businesslogic.ShipThread  - Корабль Kiev1 загрузил контейнер №214
20.03.2015 16:41:57 [Thread-12] INFO  by.epam.port.model.businesslogic.ShipThread  - Корабль Moskow3 разгрузил контейнер №100
20.03.2015 16:41:57 [Thread-0] INFO  by.epam.port.model.businesslogic.ShipThread  - Корабль Moskow разгрузил контейнер №100
20.03.2015 16:41:57 [Thread-6] INFO  by.epam.port.model.businesslogic.ShipThread  - Корабль Moskow1 разгрузил контейнер №100
20.03.2015 16:41:57 [Thread-10] INFO  by.epam.port.model.businesslogic.ShipThread  - Корабль Minsk2 загрузил контейнер №246
20.03.2015 16:41:57 [Thread-7] INFO  by.epam.port.model.businesslogic.ShipThread  - Корабль Minsk1 загрузил контейнер №62
20.03.2015 16:41:57 [Thread-11] INFO  by.epam.port.model.businesslogic.ShipThread  - Корабль Kiev2 разгрузил контейнер №100
20.03.2015 16:41:57 [Thread-11] INFO  by.epam.port.model.businesslogic.ShipThread  - Корабль Kiev2 загрузил контейнер №212
20.03.2015 16:41:57 [Thread-1] INFO  by.epam.port.model.businesslogic.ShipThread  - Корабль Minsk загрузил контейнер №395
20.03.2015 16:41:57 [Thread-9] INFO  by.epam.port.model.businesslogic.ShipThread  - Корабль Moskow2 разгрузил контейнер №100
20.03.2015 16:41:57 [Thread-3] INFO  by.epam.port.model.businesslogic.ShipThread  - Корабль Viena отчалил с 2 причала.
20.03.2015 16:41:57 [Thread-3] INFO  by.epam.port.model.businesslogic.ShipThread  - Причал #2 свободен.
20.03.2015 16:41:57 [Thread-17] INFO  by.epam.port.model.businesslogic.PortManager  - Причал №2 зарезервирован.
20.03.2015 16:41:57 [Thread-8] INFO  by.epam.port.model.businesslogic.ShipThread  - Корабль Kiev1 отчалил с 6 причала.
20.03.2015 16:41:57 [Thread-8] INFO  by.epam.port.model.businesslogic.ShipThread  - Причал #6 свободен.
20.03.2015 16:41:57 [Thread-15] INFO  by.epam.port.model.businesslogic.PortManager  - Причал №6 зарезервирован.
20.03.2015 16:41:57 [Thread-12] INFO  by.epam.port.model.businesslogic.ShipThread  - Корабль Moskow3 отчалил с 10 причала.
20.03.2015 16:41:57 [Thread-12] INFO  by.epam.port.model.businesslogic.ShipThread  - Причал #10 свободен.
20.03.2015 16:41:57 [Thread-14] INFO  by.epam.port.model.businesslogic.PortManager  - Причал №10 зарезервирован.
20.03.2015 16:41:57 [Thread-0] INFO  by.epam.port.model.businesslogic.ShipThread  - Корабль Moskow отчалил с 1 причала.
20.03.2015 16:41:57 [Thread-0] INFO  by.epam.port.model.businesslogic.ShipThread  - Причал #1 свободен.
20.03.2015 16:41:57 [Thread-16] INFO  by.epam.port.model.businesslogic.PortManager  - Причал №1 зарезервирован.
20.03.2015 16:41:57 [Thread-6] INFO  by.epam.port.model.businesslogic.ShipThread  - Корабль Moskow1 отчалил с 4 причала.
20.03.2015 16:41:57 [Thread-6] INFO  by.epam.port.model.businesslogic.ShipThread  - Причал #4 свободен.
20.03.2015 16:41:57 [Thread-5] INFO  by.epam.port.model.businesslogic.PortManager  - Причал №4 зарезервирован.
20.03.2015 16:41:57 [Thread-10] INFO  by.epam.port.model.businesslogic.ShipThread  - Корабль Minsk2 отчалил с 8 причала.
20.03.2015 16:41:57 [Thread-10] INFO  by.epam.port.model.businesslogic.ShipThread  - Причал #8 свободен.
20.03.2015 16:41:57 [Thread-4] INFO  by.epam.port.model.businesslogic.PortManager  - Причал №8 зарезервирован.
20.03.2015 16:41:57 [Thread-11] INFO  by.epam.port.model.businesslogic.ShipThread  - Корабль Kiev2 отчалил с 9 причала.
20.03.2015 16:41:57 [Thread-11] INFO  by.epam.port.model.businesslogic.ShipThread  - Причал #9 свободен.
20.03.2015 16:41:57 [Thread-13] INFO  by.epam.port.model.businesslogic.PortManager  - Причал №9 зарезервирован.
20.03.2015 16:41:57 [Thread-7] INFO  by.epam.port.model.businesslogic.ShipThread  - Корабль Minsk1 отчалил с 5 причала.
20.03.2015 16:41:57 [Thread-7] INFO  by.epam.port.model.businesslogic.ShipThread  - Причал #5 свободен.
20.03.2015 16:41:57 [Thread-2] INFO  by.epam.port.model.businesslogic.PortManager  - Причал №5 зарезервирован.
20.03.2015 16:41:57 [Thread-1] INFO  by.epam.port.model.businesslogic.ShipThread  - Корабль Minsk отчалил с 3 причала.
20.03.2015 16:41:57 [Thread-1] INFO  by.epam.port.model.businesslogic.ShipThread  - Причал #3 свободен.
20.03.2015 16:41:57 [Thread-9] INFO  by.epam.port.model.businesslogic.ShipThread  - Корабль Moskow2 отчалил с 7 причала.
20.03.2015 16:41:57 [Thread-9] INFO  by.epam.port.model.businesslogic.ShipThread  - Причал #7 свободен.
20.03.2015 16:41:58 [Thread-17] INFO  by.epam.port.model.businesslogic.ShipThread  - Корабль Kiev4 разгрузил контейнер №100
20.03.2015 16:41:58 [Thread-17] INFO  by.epam.port.model.businesslogic.ShipThread  - Корабль Kiev4 загрузил контейнер №219
20.03.2015 16:41:58 [Thread-15] INFO  by.epam.port.model.businesslogic.ShipThread  - Корабль Moskow4 разгрузил контейнер №100
20.03.2015 16:41:58 [Thread-14] INFO  by.epam.port.model.businesslogic.ShipThread  - Корабль Kiev3 разгрузил контейнер №100
20.03.2015 16:41:58 [Thread-14] INFO  by.epam.port.model.businesslogic.ShipThread  - Корабль Kiev3 загрузил контейнер №263
20.03.2015 16:41:58 [Thread-16] INFO  by.epam.port.model.businesslogic.ShipThread  - Корабль Minsk4 загрузил контейнер №6
20.03.2015 16:41:58 [Thread-5] INFO  by.epam.port.model.businesslogic.ShipThread  - Корабль Lieba разгрузил контейнер №100
20.03.2015 16:41:58 [Thread-5] INFO  by.epam.port.model.businesslogic.ShipThread  - Корабль Lieba загрузил контейнер №450
20.03.2015 16:41:58 [Thread-4] INFO  by.epam.port.model.businesslogic.ShipThread  - Корабль Singapore загрузил контейнер №427
20.03.2015 16:41:58 [Thread-13] INFO  by.epam.port.model.businesslogic.ShipThread  - Корабль Minsk3 загрузил контейнер №153
20.03.2015 16:41:58 [Thread-2] INFO  by.epam.port.model.businesslogic.ShipThread  - Корабль Kiev разгрузил контейнер №100
20.03.2015 16:41:58 [Thread-2] INFO  by.epam.port.model.businesslogic.ShipThread  - Корабль Kiev загрузил контейнер №351
20.03.2015 16:41:58 [Thread-17] INFO  by.epam.port.model.businesslogic.ShipThread  - Корабль Kiev4 отчалил с 2 причала.
20.03.2015 16:41:58 [Thread-17] INFO  by.epam.port.model.businesslogic.ShipThread  - Причал #2 свободен.
20.03.2015 16:41:58 [Thread-15] INFO  by.epam.port.model.businesslogic.ShipThread  - Корабль Moskow4 отчалил с 6 причала.
20.03.2015 16:41:58 [Thread-15] INFO  by.epam.port.model.businesslogic.ShipThread  - Причал #6 свободен.
20.03.2015 16:41:58 [Thread-14] INFO  by.epam.port.model.businesslogic.ShipThread  - Корабль Kiev3 отчалил с 10 причала.
20.03.2015 16:41:58 [Thread-14] INFO  by.epam.port.model.businesslogic.ShipThread  - Причал #10 свободен.
20.03.2015 16:41:58 [Thread-16] INFO  by.epam.port.model.businesslogic.ShipThread  - Корабль Minsk4 отчалил с 1 причала.
20.03.2015 16:41:58 [Thread-16] INFO  by.epam.port.model.businesslogic.ShipThread  - Причал #1 свободен.
20.03.2015 16:41:58 [Thread-5] INFO  by.epam.port.model.businesslogic.ShipThread  - Корабль Lieba отчалил с 4 причала.
20.03.2015 16:41:58 [Thread-5] INFO  by.epam.port.model.businesslogic.ShipThread  - Причал #4 свободен.
20.03.2015 16:41:58 [Thread-4] INFO  by.epam.port.model.businesslogic.ShipThread  - Корабль Singapore отчалил с 8 причала.
20.03.2015 16:41:58 [Thread-4] INFO  by.epam.port.model.businesslogic.ShipThread  - Причал #8 свободен.
20.03.2015 16:41:59 [Thread-13] INFO  by.epam.port.model.businesslogic.ShipThread  - Корабль Minsk3 отчалил с 9 причала.
20.03.2015 16:41:59 [Thread-13] INFO  by.epam.port.model.businesslogic.ShipThread  - Причал #9 свободен.
20.03.2015 16:41:59 [Thread-2] INFO  by.epam.port.model.businesslogic.ShipThread  - Корабль Kiev отчалил с 5 причала.
20.03.2015 16:41:59 [Thread-2] INFO  by.epam.port.model.businesslogic.ShipThread  - Причал #5 свободен.
